…
    ## 71509ENG: 'Yield apples and pears', 2017
    ##   FruitFarmingRegions: 'Fruit farming regions'
    ##   Periods: 'Periods'

Or download data.

``` r
library(dplyr) # just for example's sake
apples <- cbs_get_data("71509ENG") 

apples %>% 
  select(1:4)
```

    ## # A tibble: 105 x 4
    ##    FruitFarmingRegions Periods  TotalAppleVarieties_1 CoxSOrangePippin_2
    ##                  <int> <fct>                    <int>              <int>
    ##  1                   1 1997JJ00                   420                 43
    ##  2                   1 1998JJ00                   518                 40
    ##  3                   1 1999JJ00                   568                 39
    ##  4                   1 2000JJ00                   461                 27
    ##  5                   1 2001JJ00                   408                 30
    ##  6                   1 2002JJ00                   354                 17
    ##  7                   1 2003JJ00                   359                 17
    ##  8                   1 2004JJ00                   436                 14
    ##  9                   1 2005JJ00                   359                 12
    ## 10                   1 2006JJ00                   365                 11
    ## # ... with 95 more rows

add label columns:

``` r
apples %>% 
  cbs_add_label_columns() %>% 
  select(1:4)
```

    ## # A tibble: 105 x 4
    ##    FruitFarmingRegions FruitFarmingRegions_label Periods  Periods_label
    ##                  <int> <fct>                     <fct>    <fct>        
    ##  1                   1 Total Netherlands         1997JJ00 1997         
    ##  2                   1 Total Netherlands         1998JJ00 1998         
    ##  3                   1 Total Netherlands         1999JJ00 1999         
    ##  4                   1 Total Netherlands         2000JJ00 2000         
    ##  5                   1 Total Netherlands         2001JJ00 2001         
    ##  6                   1 Total Netherlands         2002JJ00 2002         
    ##  7                   1 Total Netherlands         2003JJ00 2003         
    ##  8                   1 Total Netherlands         2004JJ00 2004         
    ##  9                   1 Total Netherlands         2005JJ00 2005         
    ## 10                   1 Total Netherlands         2006JJ00 2006         
    ## # ... with 95 more rows
…
