cbsodataR, all data of Statistics Netherlands (CBS) • cbsodataR
…
For long SN has put its data on the web in its online database StatLine. Since 2014 this data base has an open data web API based on the OData protocol. The cbsodataR package allows for retrieving data right into R.

Table of Contents

A list of tables can be retrieved using the cbs_get_toc function.

library(dplyr) # not needed, but used in examples below
library(cbsodataR)

toc <- cbs_get_toc(Language="en") # retrieve only english tables

toc %>% 
  select(Identifier, ShortTitle) 

## # A tibble: 828 x 2
##    Identifier ShortTitle                             
##    <chr>      <chr>                                  
##  1 80783eng   Agriculture; general farm type, region 
##  2 80784eng   Agriculture; labour force, region      
##  3 7100eng    Arable crops; production               
##  4 70671ENG   Fruit culture; area fruit orchards     
##  5 37738ENG   Vegetables; yield per kind of vegetable
##  6 71509ENG   Yield apples and pears, 1997 - 2017    
##  7 83981ENG   Livestock manure; key figures          
##  8 80274eng   Livestock cattle                       
##  9 7373eng    Livestock pigs                         
## 10 7425eng    Milk supply and dairy production       
## # … with 818 more rows
…
